[  
  {
    "inputFile": "wwwroot/Templates/Default/scss/mau-xanh.scss",
    "outputFile": "wwwroot/Templates/Default/css/mau-xanh.css",
    "useNodeSass": true,
    "options": {
      "sourceMap": true,
      "relativeUrls": false
    }
  }
]